Zip Code Tabulation Areas (contemporary) — us_zipcodes • USAboundaries
…
    An sf object.

    See also

    For documentation of and citation to the underlying shapefiles for
  contemporary data from the U.S. Census Bureau, see
  census_boundaries.

    Examples

if (require(USAboundariesData)) {
  us_zipcodes()
}
#> Simple feature collection with 33144 features and 6 fields
#> geometry type:  POINT
#> dimension:      XY
#> bbox:           xmin: -176.6316 ymin: -14.22075 xmax: 145.7536 ymax: 71.2738
#> epsg (SRID):    4326
#> proj4string:    +proj=longlat +datum=WGS84 +no_defs
#> First 100 features:
#>     zipcode zcta5ce10     affgeoid10 geoid10    aland10  awater10
#> 1     21914     21914 8600000US21914   21914    1924479    477175
#> 2     01001     01001 8600000US01001   01001   29731610   2118827
#> 3     34736     34736 8600000US34736   34736  322808220  78588518
#> 4     46151     46151 8600000US46151   46151  530632048   9804480
#> 5     48039     48039 8600000US48039   48039   59592687   4845242
#> 6     01521     01521 8600000US01521   01521   31832963   1990946
#> 7     49892     49892 8600000US49892   49892  421838378   8959024
#> 8     70639     70639 8600000US70639   70639  177328877   1814507
#> 9     56755     56755 8600000US56755   56755  124397913    566871
#> 10    64723     64723 8600000US64723   64723  116917337    974138
#> 11    64145     64145 8600000US64145   64145   17067411    144490
#> 12    59842     59842 8600000US59842   59842  331776653    291591
#> 13    48653     48653 8600000US48653   48653  651630826  50312151
#> 14    08212     08212 8600000US08212   08212    2179465   2140801
#>                           geometry
#> 1   POINT(-75.9818720088634 39....
#> 2   POINT(-72.625853488062 42.0...
#> 3   POINT(-81.8962403980659 28....
#> 4   POINT(-86.430503504951 39.4...
#> 5   POINT(-82.5505355076001 42....
#> 6   POINT(-72.1659473113352 42....
#> 7   POINT(-87.7865078155571 45....
#> 8   POINT(-93.4910161408 30.984...
#> 9   POINT(-97.104717364909 48.9...
#> 10  POINT(-94.5586086927183 38....
#> 11  POINT(-94.5931176681842 38....
#> 12  POINT(-115.41788163126 47.3...
#> 13  POINT(-84.6004218185056 44....
#> 14  POINT(-74.9542294488838 38....
#>  [ reached getOption("max.print") -- omitted 86 rows ]
…
